<svg width="239" height="82" viewBox="0 0 239 82" fill="none" xmlns="http://www.w3.org/2000/svg">
<g clip-path="url(#clip0)">
<path d="M238.391 0H0.889648V82H238.391V0Z" fill="#FDBA30"/>
<path d="M12.8459 30.4021C14.3792 30.6787 16.5325 31.6765 16.5325 35.156V37.4534V59.2781C17.1777 59.144 18.401 58.8589 19.9845 58.3642V42.4086L29.2681 54.2642C31.723 52.8053 34.2031 50.9607 36.4067 48.6382L19.3394 27.174H11.7902V30.3182C11.8991 30.3182 11.9913 30.3182 12.0919 30.3182C12.3851 30.3434 12.494 30.3685 12.8459 30.4021Z" fill="#55565A"/>
<path d="M47.5084 27.2159C47.567 29.1947 47.5 36.5059 43.7631 43.6159V57.9114L38.2165 50.9356C36.1637 52.8556 33.6669 54.5996 30.6338 56.0166L42.5482 71.226H47.2319V35.0554C47.3408 31.7939 49.4187 30.8296 50.9101 30.5613C51.3709 30.511 51.7144 30.4775 52.2591 30.4775V27.2159H47.5084Z" fill="#55565A"/>
<path d="M44.157 27.1824H43.8553H43.604H39.0292V30.444C39.5655 30.444 39.6157 30.4775 40.0766 30.5278C41.325 30.7542 42.9923 31.4669 43.5537 33.6133C44.1737 31.6346 44.1653 28.0712 44.157 27.1824Z" fill="#55565A"/>
<path d="M45.6148 18.2613V10.8076L39.0208 21.7241L45.6148 18.2613Z" fill="#55565A"/>
<path d="M45.6232 18.2613V10.8076L52.2172 21.7241L45.6232 18.2613Z" fill="white"/>
<path d="M24.7352 68.0483C24.1906 68.0483 24.1487 68.0231 23.6879 67.9644C22.1546 67.6961 20.0013 66.6984 20.0013 63.2104V59.0853C18.8953 59.253 17.7475 59.3871 16.5493 59.4877V63.2104C16.5493 66.69 14.396 67.6877 12.8627 67.9644C12.4019 68.0147 12.3516 68.0483 11.807 68.0483V71.1924H24.7436V68.0483H24.7352Z" fill="#55565A"/>
<path d="M60.6549 27.1824H60.1434V71.226H60.6549V27.1824Z" fill="#55565A"/>
<path d="M77.6128 49.7282C77.6128 52.9478 75.9706 54.7505 73.0716 54.7505C70.1726 54.7505 68.5304 52.9478 68.5304 49.7282V43.9178H70.1391V49.7282C70.1391 51.9836 71.2032 53.2078 73.0716 53.2078C74.9568 53.2078 76.0125 51.9836 76.0125 49.7282V43.9178H77.6212V49.7282H77.6128Z" fill="#55565A"/>
<path d="M87.8934 54.5912L81.8441 46.6679V54.5912H80.2354V43.9262H81.71L87.751 51.883V43.9262H89.3597V54.5912H87.8934Z" fill="#55565A"/>
<path d="M94.0853 43.9262H92.4766V54.5912H94.0853V43.9262Z" fill="#55565A"/>
<path d="M100.109 54.5912L95.7191 43.9262H97.5205L100.629 51.6734C100.788 52.0926 100.931 52.5454 101.031 52.9814C101.157 52.5454 101.291 52.0926 101.433 51.6734L104.617 43.9262H106.368L101.961 54.5912H100.109Z" fill="#55565A"/>
<path d="M107.994 54.5912V43.9262H115.199V45.427H109.602V48.4873H114.479V49.9965H109.602V53.0904H115.35V54.5912H107.994Z" fill="#55565A"/>
<path d="M126.242 54.5912H124.475L121.768 51.2374H119.288V54.5912H117.68V43.9262H121.609C124.424 43.9262 126 45.2593 126 47.6153C126 49.2922 125.002 50.5331 123.394 51.0278L126.242 54.4738V54.5912ZM121.643 49.7282C123.377 49.7282 124.349 48.9569 124.349 47.6153C124.349 46.2319 123.369 45.4438 121.643 45.427H119.28V49.7282H121.643Z" fill="#55565A"/>
<path d="M134.562 45.8881C133.272 45.3599 132.242 45.1755 131.136 45.1755C130.021 45.1755 129.393 45.8211 129.393 46.4667C129.393 47.7243 130.281 47.8836 132.242 48.5292C134.093 49.1413 135.35 49.7701 135.35 51.6818C135.35 53.7947 133.775 54.7589 131.906 54.7589C130.407 54.7589 128.547 54.1804 127.223 53.4258L127.851 52.1681C129.25 52.8472 130.767 53.2916 131.839 53.2916C132.962 53.2916 133.691 52.8221 133.691 51.9249C133.691 50.7679 133.096 50.399 130.859 49.7366C129.167 49.2335 127.734 48.7389 127.734 46.626C127.734 44.9323 129.041 43.7585 131.161 43.7585C132.3 43.7585 133.691 44.0184 135.057 44.5969L134.562 45.8881Z" fill="#55565A"/>
<path d="M139.263 43.9262H137.654V54.5912H139.263V43.9262Z" fill="#55565A"/>
<path d="M145.731 43.9262C149.435 43.9262 151.512 45.8127 151.512 49.1748C151.512 52.6376 149.435 54.5996 145.731 54.5996H142.371V43.9262H145.731ZM145.731 53.0904C148.387 53.0904 149.87 51.6734 149.87 49.1748C149.87 46.7769 148.387 45.4354 145.731 45.4354H143.98V53.0988H145.731V53.0904Z" fill="#55565A"/>
<path d="M153.741 54.5912H152.007L156.447 43.9262H158.601L163.041 54.5912H161.315L160.285 52.0759H154.78L153.741 54.5912ZM157.914 46.3409C157.721 45.8127 157.595 45.3935 157.512 45.0665C157.428 45.4018 157.302 45.8211 157.109 46.3409L155.358 50.5918H159.656L157.914 46.3409Z" fill="#55565A"/>
<path d="M168.11 43.9262C171.814 43.9262 173.892 45.8127 173.892 49.1748C173.892 52.6376 171.814 54.5996 168.11 54.5996H164.751V43.9262H168.11ZM168.11 53.0904C170.767 53.0904 172.25 51.6734 172.25 49.1748C172.25 46.7769 170.767 45.4354 168.11 45.4354H166.359V53.0988H168.11V53.0904Z" fill="#55565A"/>
<path d="M72.217 60.5442C75.0155 60.5442 76.5823 61.9109 76.5823 64.3591C76.5823 66.7906 75.0239 68.1573 72.284 68.1573H70.1307V71.2176H68.522V60.5442H72.217ZM72.2673 66.6481C74.0352 66.6481 75.0322 65.8264 75.0155 64.3591C75.0155 62.8918 74.0017 62.0534 72.217 62.0534H70.1391V66.6565H72.2673V66.6481Z" fill="#55565A"/>
<path d="M87.2818 71.2092H85.5139L82.8076 67.8554H80.3191V71.2092H78.7104V60.5442H82.64C85.4552 60.5442 87.0304 61.8773 87.0304 64.2333C87.0304 65.9102 86.0334 67.1511 84.4247 67.6458L87.2734 71.0918V71.2092H87.2818ZM82.6819 66.3462C84.4163 66.3462 85.3882 65.5749 85.3882 64.2333C85.3882 62.8499 84.4079 62.0618 82.6819 62.045H80.3191V66.3462H82.6819Z" fill="#55565A"/>
<path d="M90.9349 60.5442H89.3262V71.2092H90.9349V60.5442Z" fill="#55565A"/>
<path d="M97.0345 71.2092L92.6441 60.5442H94.4455L97.554 68.2914C97.7132 68.7106 97.8556 69.1634 97.9562 69.5994C98.0819 69.1634 98.2159 68.7106 98.3584 68.2914L101.542 60.5442H103.293L98.8862 71.2092H97.0345Z" fill="#55565A"/>
<path d="M104.274 71.2092H102.539L106.98 60.5442H109.133L113.574 71.2092H111.848L110.817 68.6939H105.313L104.274 71.2092ZM108.446 62.9589C108.254 62.4307 108.128 62.0115 108.044 61.6845C107.96 62.0199 107.835 62.4391 107.642 62.9589L105.891 67.2098H110.189L108.446 62.9589Z" fill="#55565A"/>
<path d="M118.635 60.5442C122.338 60.5442 124.416 62.4307 124.416 65.7929C124.416 69.2556 122.338 71.2176 118.635 71.2176H115.275V60.5442H118.635ZM118.635 69.7084C121.291 69.7084 122.774 68.2914 122.774 65.7929C122.774 63.3949 121.291 62.0534 118.635 62.0534H116.884V69.7168H118.635V69.7084Z" fill="#55565A"/>
<path d="M126.695 71.2092H124.961L129.401 60.5442H131.555L135.995 71.2092H134.269L133.239 68.6939H127.734L126.695 71.2092ZM130.876 62.9589C130.683 62.4307 130.557 62.0115 130.474 61.6845C130.39 62.0199 130.264 62.4391 130.071 62.9589L128.32 67.2098H132.619L130.876 62.9589Z" fill="#55565A"/>
<path d="M146.159 60.5442C149.862 60.5442 151.94 62.4307 151.94 65.7929C151.94 69.2556 149.862 71.2176 146.159 71.2176H142.799V60.5442H146.159ZM146.159 69.7084C148.815 69.7084 150.298 68.2914 150.298 65.7929C150.298 63.3949 148.815 62.0534 146.159 62.0534H144.407V69.7168H146.159V69.7084Z" fill="#55565A"/>
<path d="M154.143 71.2092V60.5442H161.349V62.045H155.752V65.1053H160.628V66.6145H155.752V69.7084H161.508V71.2092H154.143Z" fill="#55565A"/>
<path d="M163.829 71.2092V60.5442H165.438V69.6749H170.666V71.2092H163.829Z" fill="#55565A"/>
<path d="M184.977 71.2092L178.927 63.2859V71.2092H177.319V60.5442H178.785L184.834 68.501V60.5442H186.443V71.2092H184.977Z" fill="#55565A"/>
<path d="M198.885 65.8935C198.885 69.3898 197.017 71.3685 193.799 71.3685C190.599 71.3685 188.73 69.3898 188.73 65.8935C188.73 62.3468 190.599 60.3681 193.799 60.3681C197.017 60.3681 198.885 62.3468 198.885 65.8935ZM197.243 65.8935C197.243 63.2524 196.003 61.8689 193.799 61.8689C191.613 61.8689 190.373 63.2524 190.373 65.8935C190.373 68.501 191.613 69.8677 193.799 69.8677C196.003 69.8677 197.243 68.501 197.243 65.8935Z" fill="#55565A"/>
<path d="M209.652 71.2092H207.884L205.178 67.8554H202.698V71.2092H201.089V60.5442H205.018C207.834 60.5442 209.409 61.8773 209.409 64.2333C209.409 65.9102 208.412 67.1511 206.803 67.6458L209.652 71.0918V71.2092ZM205.06 66.3462C206.795 66.3462 207.767 65.5749 207.767 64.2333C207.767 62.8499 206.786 62.0618 205.06 62.045H202.698V66.3462H205.06Z" fill="#55565A"/>
<path d="M215.232 62.045V71.2092H213.623V62.045H209.903V60.5442H218.952V62.045H215.232Z" fill="#55565A"/>
<path d="M220.368 71.2092V60.5442H227.574V62.045H221.977V65.1053H226.853V66.6145H221.977V69.7084H227.733V71.2092H220.368Z" fill="#55565A"/>
</g>
<defs>
<clipPath id="clip0">
<rect width="237.501" height="82" fill="white" transform="translate(0.889648)"/>
</clipPath>
</defs>
</svg>
