<svg width="44" height="44" viewBox="0 0 44 44" fill="none" xmlns="http://www.w3.org/2000/svg">
<path d="M20.1667 12.8333H23.8334V16.5H20.1667V12.8333Z" fill="black"/>
<path d="M20.1667 20.1667H23.8334V31.1667H20.1667V20.1667Z" fill="black"/>
<path fill-rule="evenodd" clip-rule="evenodd" d="M3.66675 22C3.66675 11.88 11.88 3.66667 22.0001 3.66667C32.1201 3.66667 40.3334 11.88 40.3334 22C40.3334 32.12 32.1201 40.3333 22.0001 40.3333C11.88 40.3333 3.66675 32.12 3.66675 22ZM7.33341 22C7.33341 30.085 13.915 36.6667 22.0001 36.6667C30.0851 36.6667 36.6667 30.085 36.6667 22C36.6667 13.915 30.0851 7.33334 22.0001 7.33334C13.915 7.33334 7.33341 13.915 7.33341 22Z" fill="black"/>
</svg>
