<svg width="44" height="44" viewBox="0 0 44 44" fill="none" xmlns="http://www.w3.org/2000/svg">
<path fill-rule="evenodd" clip-rule="evenodd" d="M7.33333 11H29.3333C30.3417 11 31.1667 11.825 31.1667 12.8333V19.25L38.5 11.9167V32.0833L31.1667 24.75V31.1667C31.1667 32.175 30.3417 33 29.3333 33H7.33333C6.325 33 5.5 32.175 5.5 31.1667V12.8333C5.5 11.825 6.325 11 7.33333 11ZM27.5 29.3333V14.6667H9.16667V29.3333H27.5Z" fill="black"/>
</svg>
